\relax 
\select@language{english}
\@writefile{toc}{\select@language{english}}
\@writefile{lof}{\select@language{english}}
\@writefile{lot}{\select@language{english}}
\@writefile{toc}{\contentsline {section}{\numberline {1}Phase 1}{1}}
\@writefile{toc}{\contentsline {section}{\numberline {2}Phase 2}{1}}
